%YAML 1.1
%TAG !u! tag:unity3d.com,2011:
--- !u!1045 &1
EditorBuildSettings:
  m_ObjectHideFlags: 0
  serializedVersion: 2
  m_Scenes:
  - enabled: 1
    path: Assets/Tokyo/Scenes/TokyoMM.unity
    guid: 164157e49743543e1938265288f8cfe0
  - enabled: 1
    path: Assets/Tokyo/Scenes/TokyoGame1.unity
    guid: b2dff3311a19442e2b0c321df19b897f
  - enabled: 1
    path: Assets/Scenes/Levels/Level1/Level1.unity
    guid: 41171dfb75d104e408c9563c2b91e030
  m_configObjects: {}
